Examples/SCP15/xccsl/trace/Simulation2021_0614_141635/scp15_v1b2021_0614_141635.vcd
$date 
Mon Jun 14 14:16:36 CEST 2021
$end

$version 
VCD Generation 2.1.0
$end

$comment alias scp15_v1b__main__in "scp15_v1b::main::in" $end
$comment alias scp15_v1b__main__in1 "scp15_v1b::main::in1" $end
$comment alias scp15_v1b__main__in2 "scp15_v1b::main::in2" $end
$comment alias scp15_v1b__main__out "scp15_v1b::main::out" $end
$comment hide scp15_v1b__main__r_11__AlternatesDef__Alt_c1DelayedByOne $end
$comment alias scp15_v1b__main__r_11__AlternatesDef__Alt_c1DelayedByOne "scp15_v1b::main::r_11::AlternatesDef::Alt_c1DelayedByOne" $end
$comment alias scp15_v1b__main__step3 "scp15_v1b::main::step3" $end
$comment scale 0.1  $end
$comment relation   "scp15_v1b2021_0614_141635.ccslrelationmodel" $end
$comment xmi  scp15_v1b__main__in1 "scp15_v1b2021_0614_141635.trace#//@references.0" $end
$comment xmi  scp15_v1b__main__out "scp15_v1b2021_0614_141635.trace#//@references.1" $end
$comment xmi  scp15_v1b__main__step3 "scp15_v1b2021_0614_141635.trace#//@references.2" $end
$comment xmi  scp15_v1b__main__in2 "scp15_v1b2021_0614_141635.trace#//@references.3" $end
$comment xmi  scp15_v1b__main__r_11__AlternatesDef__Alt_c1DelayedByOne "scp15_v1b2021_0614_141635.trace#//@references.4" $end
$comment xmi  scp15_v1b__main__in "scp15_v1b2021_0614_141635.trace#//@references.5" $end
$scope module top $end
$var event 1 !1 scp15_v1b__main__in $end
$var event 1 !2 scp15_v1b__main__in1 $end
$var event 1 !3 scp15_v1b__main__in2 $end
$var event 1 !4 scp15_v1b__main__out $end
$var event 1 !5 scp15_v1b__main__r_11__AlternatesDef__Alt_c1DelayedByOne $end
$var event 1 !6 scp15_v1b__main__step3 $end
$upscope $end
$enddefinitions $end

#0
1!3
1!1
#10
1!2
#20
1!4
1!6
#30
1!2
1!5
1!1
#40
1!3
#50
1!6
#60
1!4
#70
1!2
1!5
1!1
#80
1!3
#90
1!4
1!6
#100
1!3
1!5
1!1
#110
1!2
#120
1!4
1!6
#130
1!3
1!5
1!1
#140
1!2
#150
1!6
#160
1!4
#170
1!2
1!3
1!5
1!1
#180
1!4
1!6
#190
1!3
1!5
1!1
#200
1!2
#210
1!6
#220
1!4
#230
1!3
1!5
1!1
#240
1!2
#250
1!4
1!6
#260
1!3
1!5
1!1
#270
1!2
#280
1!4
1!6
#290
1!2
1!3
1!5
1!1
#300
1!4
1!6
#310
1!2
1!3
1!5
1!1
#320
1!4
1!6
#330
1!3
1!5
1!1
#340
1!2
#350
1!6
#360
1!4
#370
1!2
1!5
1!1
#380
1!3
#390
1!4
1!6
#400
1!2
1!3
1!5
1!1
#410
1!4
1!6
#420
1!2
1!3
1!5
1!1
#430
1!6
#440
1!4
#450
1!2
1!5
1!1
#460
1!3
#470
1!6
#480
1!4
#490
1!2
1!3
1!5
1!1
#500
1!6
#510
1!4
#520
1!2
1!3
1!5
1!1
#530
1!4
1!6
#540
1!3
1!5
1!1
#550
1!2
#560
1!6
#570
1!4
#580
1!2
1!3
1!5
1!1
#590
1!6
#600
1!4
#610
1!3
1!5
1!1
#620
1!2
#630
1!4
1!6
#640
1!3
1!5
1!1
#650
1!2
#660
1!4
1!6
#670
1!2
1!3
1!5
1!1
#680
1!6
#690
1!4
#700
1!2
1!3
1!5
1!1
#710
1!4
1!6
#720
1!2
1!5
1!1
#730
1!3
#740
1!4
1!6
#750
1!3
1!5
1!1
#760
1!2
#770
1!4
1!6
#780
1!2
1!5
1!1
#790
1!3
#800
1!4
1!6
#810
1!2
1!5
1!1
#820
1!3
#830
1!6
#840
1!4
#850
1!2
1!3
1!5
1!1
#860
1!4
1!6
#870
1!2
1!3
1!5
1!1
#880
1!6
#890
1!4
#900
1!3
1!5
1!1
#910
1!2
#920
1!6
#930
1!4
#940
1!3
1!5
1!1
#950
1!2
#960
1!6
#970
1!4
#980
1!2
1!3
1!5
1!1
#990
1!6
#1000
z!1
z!2
z!3
z!4
z!5
z!6
