Examples/SCP15/xccsl/trace/Simulation2021_0614_142025/scp15_v22021_0614_142025.vcd
$date 
Mon Jun 14 14:20:26 CEST 2021
$end

$version 
VCD Generation 2.1.0
$end

$comment alias scp15_v2__main__in "scp15_v2::main::in" $end
$comment alias scp15_v2__main__in1 "scp15_v2::main::in1" $end
$comment alias scp15_v2__main__in2 "scp15_v2::main::in2" $end
$comment alias scp15_v2__main__out "scp15_v2::main::out" $end
$comment hide scp15_v2__main__r_17__AlternatesDef__Alt_c1DelayedByOne $end
$comment alias scp15_v2__main__r_17__AlternatesDef__Alt_c1DelayedByOne "scp15_v2::main::r_17::AlternatesDef::Alt_c1DelayedByOne" $end
$comment alias scp15_v2__main__step1 "scp15_v2::main::step1" $end
$comment alias scp15_v2__main__step2 "scp15_v2::main::step2" $end
$comment alias scp15_v2__main__step3 "scp15_v2::main::step3" $end
$comment scale 0.1  $end
$comment relation   "scp15_v22021_0614_142025.ccslrelationmodel" $end
$comment xmi  scp15_v2__main__in2 "scp15_v22021_0614_142025.trace#//@references.0" $end
$comment xmi  scp15_v2__main__out "scp15_v22021_0614_142025.trace#//@references.1" $end
$comment xmi  scp15_v2__main__step1 "scp15_v22021_0614_142025.trace#//@references.2" $end
$comment xmi  scp15_v2__main__step2 "scp15_v22021_0614_142025.trace#//@references.3" $end
$comment xmi  scp15_v2__main__step3 "scp15_v22021_0614_142025.trace#//@references.4" $end
$comment xmi  scp15_v2__main__in1 "scp15_v22021_0614_142025.trace#//@references.5" $end
$comment xmi  scp15_v2__main__r_17__AlternatesDef__Alt_c1DelayedByOne "scp15_v22021_0614_142025.trace#//@references.6" $end
$comment xmi  scp15_v2__main__in "scp15_v22021_0614_142025.trace#//@references.7" $end
$scope module top $end
$var event 1 !1 scp15_v2__main__in $end
$var event 1 !2 scp15_v2__main__in1 $end
$var event 1 !3 scp15_v2__main__in2 $end
$var event 1 !4 scp15_v2__main__out $end
$var event 1 !5 scp15_v2__main__r_17__AlternatesDef__Alt_c1DelayedByOne $end
$var event 1 !6 scp15_v2__main__step1 $end
$var event 1 !7 scp15_v2__main__step2 $end
$var event 1 !8 scp15_v2__main__step3 $end
$upscope $end
$enddefinitions $end

#0
1!3
1!7
#10
1!6
1!2
1!1
#20
1!8
#30
1!4
1!2
#40
1!3
1!6
1!2
1!5
1!1
#50
1!7
#60
1!6
1!8
#70
1!6
1!2
#80
1!4
1!2
#90
1!6
#100
1!3
1!7
1!5
1!1
#110
1!6
1!2
#120
1!8
#130
1!2
#140
1!4
1!6
#150
1!3
1!6
1!2
1!5
1!1
#160
1!6
1!7
1!2
#170
1!6
1!2
#180
1!4
1!8
#190
1!3
1!7
1!2
1!5
1!1
#200
1!4
1!6
1!8
1!2
#210
1!6
1!2
#220
1!3
1!7
1!5
1!1
#230
1!6
1!8
#240
1!4
#250
1!3
1!7
1!2
1!5
1!1
#260
1!6
1!2
#270
1!8
1!2
#280
1!6
1!2
#290
1!4
1!6
1!2
#300
1!3
1!7
1!2
1!5
1!1
#310
1!8
#320
1!4
1!6
#330
1!3
1!6
1!2
1!5
1!1
#340
1!2
#350
1!6
1!2
#360
1!7
1!2
#370
1!4
1!6
1!8
1!2
#380
1!3
1!2
1!5
1!1
#390
1!6
1!2
#400
1!6
#410
1!7
#420
1!6
1!8
1!2
#430
1!4
1!6
1!2
#440
1!3
1!6
1!7
1!2
1!5
1!1
#450
1!6
1!2
#460
1!4
1!6
1!8
#470
1!2
#480
1!3
1!6
1!5
1!1
#490
1!6
#500
1!6
1!7
#510
1!6
#520
1!6
1!8
1!2
#530
1!4
1!2
#540
1!3
1!6
1!7
1!2
1!5
1!1
#550
1!4
1!6
1!8
1!2
#560
1!3
1!7
1!2
1!5
1!1
#570
1!4
1!6
1!8
1!2
#580
1!3
1!2
1!5
1!1
#590
1!6
1!7
1!2
#600
1!4
1!6
1!8
#610
1!3
1!7
1!5
1!1
#620
1!6
#630
1!4
1!8
#640
1!3
1!6
1!7
1!2
1!5
1!1
#650
1!8
1!2
#660
1!4
1!2
#670
1!3
1!6
1!2
1!5
1!1
#680
1!7
#690
1!4
1!8
#700
1!3
1!6
1!7
1!5
1!1
#710
1!4
1!6
1!8
#720
1!3
1!7
1!5
1!1
#730
1!4
1!6
1!8
#740
1!3
1!6
1!7
1!2
1!5
1!1
#750
1!4
1!6
1!8
1!2
#760
1!3
1!6
1!7
1!2
1!5
1!1
#770
1!6
1!2
#780
1!4
1!6
1!8
1!2
#790
1!3
1!2
1!5
1!1
#800
1!6
1!7
1!2
#810
1!2
#820
1!2
#830
1!2
#840
1!8
1!2
#850
1!6
#860
1!4
#870
1!3
1!6
1!2
1!5
1!1
#880
1!6
1!7
#890
1!4
1!6
1!8
1!2
#900
1!3
1!5
1!1
#910
1!6
1!7
1!2
#920
1!6
1!8
#930
1!6
#940
1!4
1!6
#950
1!3
1!7
1!5
1!1
#960
1!4
1!8
#970
1!3
1!7
1!5
1!1
#980
1!4
1!8
1!2
#990
1!3
1!2
1!5
1!1
#1000
z!1
z!2
z!3
z!4
z!5
z!6
z!7
z!8
