Examples/SCP15/xccsl/trace/Simulation2021_0614_141600/scp15_v12021_0614_141600.vcd
$date 
Mon Jun 14 14:16:01 CEST 2021
$end

$version 
VCD Generation 2.1.0
$end

$comment alias scp15_v1__main__in "scp15_v1::main::in" $end
$comment alias scp15_v1__main__in1 "scp15_v1::main::in1" $end
$comment alias scp15_v1__main__in2 "scp15_v1::main::in2" $end
$comment alias scp15_v1__main__out "scp15_v1::main::out" $end
$comment hide scp15_v1__main__r_7__AlternatesDef__Alt_c1DelayedByOne $end
$comment alias scp15_v1__main__r_7__AlternatesDef__Alt_c1DelayedByOne "scp15_v1::main::r_7::AlternatesDef::Alt_c1DelayedByOne" $end
$comment alias scp15_v1__main__step1 "scp15_v1::main::step1" $end
$comment alias scp15_v1__main__step2 "scp15_v1::main::step2" $end
$comment alias scp15_v1__main__step3 "scp15_v1::main::step3" $end
$comment scale 0.1  $end
$comment relation   "scp15_v12021_0614_141600.ccslrelationmodel" $end
$comment xmi  scp15_v1__main__step1 "scp15_v12021_0614_141600.trace#//@references.0" $end
$comment xmi  scp15_v1__main__step2 "scp15_v12021_0614_141600.trace#//@references.1" $end
$comment xmi  scp15_v1__main__out "scp15_v12021_0614_141600.trace#//@references.2" $end
$comment xmi  scp15_v1__main__step3 "scp15_v12021_0614_141600.trace#//@references.3" $end
$comment xmi  scp15_v1__main__in1 "scp15_v12021_0614_141600.trace#//@references.4" $end
$comment xmi  scp15_v1__main__in2 "scp15_v12021_0614_141600.trace#//@references.5" $end
$comment xmi  scp15_v1__main__r_7__AlternatesDef__Alt_c1DelayedByOne "scp15_v12021_0614_141600.trace#//@references.6" $end
$comment xmi  scp15_v1__main__in "scp15_v12021_0614_141600.trace#//@references.7" $end
$scope module top $end
$var event 1 !1 scp15_v1__main__in $end
$var event 1 !2 scp15_v1__main__in1 $end
$var event 1 !3 scp15_v1__main__in2 $end
$var event 1 !4 scp15_v1__main__out $end
$var event 1 !5 scp15_v1__main__r_7__AlternatesDef__Alt_c1DelayedByOne $end
$var event 1 !6 scp15_v1__main__step1 $end
$var event 1 !7 scp15_v1__main__step2 $end
$var event 1 !8 scp15_v1__main__step3 $end
$upscope $end
$enddefinitions $end

#0
1!2
1!1
#10
1!6
1!7
1!3
#20
1!8
#30
1!4
#40
1!6
1!7
1!2
1!3
1!5
1!1
#50
1!4
1!8
#60
1!2
1!3
1!5
1!1
#70
1!6
1!7
#80
1!8
#90
1!4
#100
1!2
1!3
1!5
1!1
#110
1!6
#120
1!7
#130
1!4
1!8
#140
1!6
1!2
1!3
1!5
1!1
#150
1!7
#160
1!8
#170
1!4
#180
1!6
1!2
1!3
1!5
1!1
#190
1!7
#200
1!4
1!8
#210
1!2
1!3
1!5
1!1
#220
1!7
#230
1!6
#240
1!8
#250
1!4
#260
1!6
1!2
1!5
1!1
#270
1!3
#280
1!7
#290
1!8
#300
1!4
#310
1!7
1!3
1!5
1!1
#320
1!2
#330
1!6
#340
1!4
1!8
#350
1!2
1!5
1!1
#360
1!3
#370
1!6
1!7
#380
1!4
1!8
#390
1!6
1!2
1!5
1!1
#400
1!3
#410
1!7
#420
1!4
1!8
#430
1!2
1!5
1!1
#440
1!6
1!7
1!3
#450
1!8
#460
1!4
#470
1!7
1!2
1!3
1!5
1!1
#480
1!6
#490
1!8
#500
1!4
#510
1!6
1!2
1!3
1!5
1!1
#520
1!7
#530
1!4
1!8
#540
1!2
1!5
1!1
#550
1!6
1!3
#560
1!7
#570
1!8
#580
1!4
#590
1!2
1!3
1!5
1!1
#600
1!6
1!7
#610
1!4
1!8
#620
1!6
1!7
1!2
1!3
1!5
1!1
#630
1!4
1!8
#640
1!7
1!3
1!5
1!1
#650
1!6
1!2
#660
1!8
#670
1!4
#680
1!2
1!5
1!1
#690
1!7
1!3
#700
1!6
#710
1!8
#720
1!4
#730
1!6
1!2
1!3
1!5
1!1
#740
1!7
#750
1!8
#760
1!4
#770
1!6
1!7
1!2
1!3
1!5
1!1
#780
1!8
#790
1!4
#800
1!7
1!2
1!3
1!5
1!1
#810
1!6
#820
1!8
#830
1!4
#840
1!3
1!5
1!1
#850
1!6
1!2
#860
1!7
#870
1!8
#880
1!4
#890
1!3
1!5
1!1
#900
1!6
1!7
1!2
#910
1!8
#920
1!4
#930
1!7
1!2
1!3
1!5
1!1
#940
1!6
#950
1!4
1!8
#960
1!6
1!2
1!5
1!1
#970
1!3
#980
1!7
#990
1!4
1!8
#1000
z!1
z!2
z!3
z!4
z!5
z!6
z!7
z!8
