Examples/CCSL_Primitives/xccsl/trace/Simulation2021_0713_163043/UnionIntersection2021_0713_163043.vcd
$date 
Tue Jul 13 16:30:43 CEST 2021
$end

$version 
VCD Generation 2.1.0
$end

$comment alias UnionIntersection__main__a "UnionIntersection::main::a" $end
$comment alias UnionIntersection__main__b "UnionIntersection::main::b" $end
$comment alias UnionIntersection__main__c "UnionIntersection::main::c" $end
$comment alias UnionIntersection__main__d "UnionIntersection::main::d" $end
$comment alias UnionIntersection__main__e "UnionIntersection::main::e" $end
$comment alias UnionIntersection__main__f "UnionIntersection::main::f" $end
$comment alias UnionIntersection__main__u "UnionIntersection::main::u" $end
$comment scale 0.1  $end
$comment relation   "UnionIntersection2021_0713_163043.ccslrelationmodel" $end
$comment xmi  UnionIntersection__main__a "UnionIntersection2021_0713_163043.trace#//@references.0" $end
$comment xmi  UnionIntersection__main__d "UnionIntersection2021_0713_163043.trace#//@references.1" $end
$comment xmi  UnionIntersection__main__b "UnionIntersection2021_0713_163043.trace#//@references.2" $end
$comment xmi  UnionIntersection__main__c "UnionIntersection2021_0713_163043.trace#//@references.3" $end
$comment xmi  UnionIntersection__main__u "UnionIntersection2021_0713_163043.trace#//@references.4" $end
$comment xmi  UnionIntersection__main__f "UnionIntersection2021_0713_163043.trace#//@references.5" $end
$comment xmi  UnionIntersection__main__e "UnionIntersection2021_0713_163043.trace#//@references.6" $end
$scope module top $end
$var event 1 !1 UnionIntersection__main__a $end
$var event 1 !2 UnionIntersection__main__b $end
$var event 1 !3 UnionIntersection__main__c $end
$var event 1 !4 UnionIntersection__main__d $end
$var event 1 !5 UnionIntersection__main__e $end
$var event 1 !6 UnionIntersection__main__f $end
$var event 1 !7 UnionIntersection__main__u $end
$upscope $end
$enddefinitions $end

#0
1!1
1!4
1!7
1!5
#10
1!1
1!4
1!2
1!7
1!5
#20
1!1
1!4
1!2
1!7
1!5
#30
1!3
#40
1!1
1!2
1!3
1!7
1!6
#50
1!2
1!3
1!7
1!6
#60
1!1
1!4
1!3
1!7
1!5
#70
1!1
1!2
#80
1!1
1!2
#90
1!1
1!4
1!2
1!3
1!7
1!6
1!5
#100
1!1
1!4
1!3
1!7
1!5
#110
1!3
#120
1!4
1!2
1!3
1!7
1!6
#130
1!2
1!3
1!7
1!6
#140
1!1
1!4
1!2
1!7
1!5
#150
1!2
#160
1!4
1!2
1!3
1!7
1!6
#170
1!4
1!2
1!3
1!7
1!6
#180
1!1
1!2
1!3
1!7
1!6
#190
1!1
1!4
1!3
1!7
1!5
#200
1!1
1!2
#210
1!2
1!3
1!7
1!6
#220
1!4
1!2
#230
1!2
1!3
1!7
1!6
#240
1!4
1!3
#250
1!1
1!4
1!7
1!5
#260
1!4
1!2
#270
1!1
1!4
1!2
1!3
1!7
1!6
1!5
#280
1!2
#290
1!2
1!3
1!7
1!6
#300
1!4
1!2
1!3
1!7
1!6
#310
1!4
1!2
1!3
1!7
1!6
#320
1!1
1!2
#330
1!4
1!2
#340
1!1
1!2
#350
1!1
1!2
1!3
1!7
1!6
#360
1!1
1!3
#370
1!1
1!4
1!2
1!7
1!5
#380
1!1
1!4
1!2
1!7
1!5
#390
1!1
#400
1!1
#410
1!1
1!2
1!3
1!7
1!6
#420
1!1
1!2
1!3
1!7
1!6
#430
1!4
#440
1!1
1!4
1!3
1!7
1!5
#450
1!1
1!3
#460
1!1
1!3
#470
1!1
1!4
1!2
1!7
1!5
#480
1!1
1!4
1!2
1!3
1!7
1!6
1!5
#490
1!4
#500
1!4
1!3
#510
1!1
1!4
1!7
1!5
#520
1!2
#530
1!2
1!3
1!7
1!6
#540
1!4
1!2
1!3
1!7
1!6
#550
1!4
#560
1!4
1!2
#570
1!4
1!2
1!3
1!7
1!6
#580
1!2
1!3
1!7
1!6
#590
1!4
1!3
#600
1!2
1!3
1!7
1!6
#610
1!2
#620
1!1
#630
1!4
1!2
#640
1!1
1!4
1!2
1!7
1!5
#650
1!1
1!4
1!2
1!7
1!5
#660
1!4
1!2
#670
1!1
1!3
#680
1!4
#690
1!1
1!4
1!7
1!5
#700
1!1
1!4
1!2
1!7
1!5
#710
1!1
1!4
1!3
1!7
1!5
#720
1!4
1!3
#730
1!1
1!2
#740
1!4
1!3
#750
1!1
1!4
1!7
1!5
#760
1!1
1!4
1!2
1!3
1!7
1!6
1!5
#770
1!1
1!3
#780
1!2
#790
1!3
#800
1!2
#810
1!1
#820
1!4
1!2
#830
1!4
#840
1!4
1!2
1!3
1!7
1!6
#850
1!4
1!2
#860
1!1
1!4
1!2
1!3
1!7
1!6
1!5
#870
1!1
1!4
1!2
1!3
1!7
1!6
1!5
#880
1!1
1!2
#890
1!1
1!2
1!3
1!7
1!6
#900
1!2
1!3
1!7
1!6
#910
1!1
1!2
1!3
1!7
1!6
#920
1!2
#930
1!2
1!3
1!7
1!6
#940
1!4
1!2
1!3
1!7
1!6
#950
1!1
1!4
1!7
1!5
#960
1!1
1!2
1!3
1!7
1!6
#970
1!4
1!3
#980
1!1
1!4
1!2
1!7
1!5
#990
1!4
1!2
1!3
1!7
1!6
#1000
z!1
z!2
z!3
z!4
z!5
z!6
z!7
