Examples/SCP15/xccsl/trace/Simulation2021_0614_142138/scp15_v2b2021_0614_142138.vcd
$date 
Mon Jun 14 14:21:38 CEST 2021
$end

$version 
VCD Generation 2.1.0
$end

$comment alias scp15_v2b__main__in "scp15_v2b::main::in" $end
$comment alias scp15_v2b__main__in1 "scp15_v2b::main::in1" $end
$comment alias scp15_v2b__main__in2 "scp15_v2b::main::in2" $end
$comment alias scp15_v2b__main__out "scp15_v2b::main::out" $end
$comment hide scp15_v2b__main__r_21__AlternatesDef__Alt_c1DelayedByOne $end
$comment alias scp15_v2b__main__r_21__AlternatesDef__Alt_c1DelayedByOne "scp15_v2b::main::r_21::AlternatesDef::Alt_c1DelayedByOne" $end
$comment alias scp15_v2b__main__step3 "scp15_v2b::main::step3" $end
$comment scale 0.1  $end
$comment relation   "scp15_v2b2021_0614_142138.ccslrelationmodel" $end
$comment xmi  scp15_v2b__main__in2 "scp15_v2b2021_0614_142138.trace#//@references.0" $end
$comment xmi  scp15_v2b__main__out "scp15_v2b2021_0614_142138.trace#//@references.1" $end
$comment xmi  scp15_v2b__main__step3 "scp15_v2b2021_0614_142138.trace#//@references.2" $end
$comment xmi  scp15_v2b__main__in1 "scp15_v2b2021_0614_142138.trace#//@references.3" $end
$comment xmi  scp15_v2b__main__in "scp15_v2b2021_0614_142138.trace#//@references.4" $end
$comment xmi  scp15_v2b__main__r_21__AlternatesDef__Alt_c1DelayedByOne "scp15_v2b2021_0614_142138.trace#//@references.5" $end
$scope module top $end
$var event 1 !1 scp15_v2b__main__in $end
$var event 1 !2 scp15_v2b__main__in1 $end
$var event 1 !3 scp15_v2b__main__in2 $end
$var event 1 !4 scp15_v2b__main__out $end
$var event 1 !5 scp15_v2b__main__r_21__AlternatesDef__Alt_c1DelayedByOne $end
$var event 1 !6 scp15_v2b__main__step3 $end
$upscope $end
$enddefinitions $end

#0
1!3
#10
1!3
1!2
1!1
#20
1!3
1!6
#30
1!3
1!4
#40
1!3
#50
1!2
1!1
1!5
#60
1!3
1!6
#70
1!3
1!4
#80
1!3
1!2
1!1
1!5
#90
1!3
#100
1!3
1!4
1!6
#110
1!3
1!2
1!1
1!5
#120
1!3
1!6
#130
1!3
1!4
#140
1!2
1!1
1!5
#150
1!3
1!4
1!6
#160
1!3
#170
1!3
#180
1!3
1!2
1!1
1!5
#190
1!3
1!4
1!6
#200
1!2
1!1
1!5
#210
1!6
#220
1!3
#230
1!4
#240
1!2
1!1
1!5
#250
1!3
#260
1!4
1!6
#270
1!3
1!2
1!1
1!5
#280
1!6
#290
1!3
#300
1!4
#310
1!3
#320
1!3
#330
1!3
1!2
1!1
1!5
#340
1!3
1!6
#350
1!3
#360
1!4
#370
1!3
#380
1!3
1!2
1!1
1!5
#390
1!6
#400
1!4
#410
1!2
1!1
1!5
#420
1!4
1!6
#430
1!3
#440
1!3
#450
1!2
1!1
1!5
#460
1!3
1!6
#470
1!3
1!4
#480
1!3
#490
1!2
1!1
1!5
#500
1!3
1!6
#510
1!4
#520
1!3
1!2
1!1
1!5
#530
1!4
1!6
#540
1!2
1!1
1!5
#550
1!4
1!6
#560
1!3
#570
1!3
1!2
1!1
1!5
#580
1!3
1!4
1!6
#590
1!3
1!2
1!1
1!5
#600
1!3
#610
1!4
1!6
#620
1!3
#630
1!3
#640
1!3
#650
1!2
1!1
1!5
#660
1!3
#670
1!3
1!4
1!6
#680
1!3
1!2
1!1
1!5
#690
1!3
1!6
#700
1!3
1!4
#710
1!3
#720
1!3
1!2
1!1
1!5
#730
1!3
#740
1!3
1!6
#750
1!4
#760
1!2
1!1
1!5
#770
1!3
1!4
1!6
#780
1!3
#790
1!3
#800
1!2
1!1
1!5
#810
1!3
1!4
1!6
#820
1!2
1!1
1!5
#830
1!4
1!6
#840
1!3
#850
1!2
1!1
1!5
#860
1!4
1!6
#870
1!2
1!1
1!5
#880
1!3
1!6
#890
1!3
#900
1!3
#910
1!3
#920
1!3
#930
1!3
#940
1!4
#950
1!2
1!1
1!5
#960
1!6
#970
1!3
#980
1!4
#990
1!3
#1000
z!1
z!2
z!3
z!4
z!5
z!6
