Examples/SCP15/xccsl/trace/Simulation2021_0614_141514/alt2021_0614_141514.vcd
$date 
Mon Jun 14 14:15:14 CEST 2021
$end

$version 
VCD Generation 2.1.0
$end

$comment alias alt__main__a "alt::main::a" $end
$comment alias alt__main__b "alt::main::b" $end
$comment hide alt__main__b__DelayForDef__DelayFor_defer $end
$comment alias alt__main__b__DelayForDef__DelayFor_defer "alt::main::b::DelayForDef::DelayFor_defer" $end
$comment alias alt__main__c "alt::main::c" $end
$comment scale 0.1  $end
$comment relation   "alt2021_0614_141514.ccslrelationmodel" $end
$comment xmi  alt__main__a "alt2021_0614_141514.trace#//@references.0" $end
$comment xmi  alt__main__c "alt2021_0614_141514.trace#//@references.1" $end
$comment xmi  alt__main__b__DelayForDef__DelayFor_defer "alt2021_0614_141514.trace#//@references.2" $end
$comment xmi  alt__main__b "alt2021_0614_141514.trace#//@references.3" $end
$scope module top $end
$var event 1 !1 alt__main__a $end
$var event 1 !2 alt__main__b $end
$var event 1 !3 alt__main__b__DelayForDef__DelayFor_defer $end
$var event 1 !4 alt__main__c $end
$upscope $end
$enddefinitions $end

#0
1!1
#10
1!4
#20
1!1
1!3
1!2
#30
1!4
#40
1!1
1!3
1!2
#50
1!4
#60
1!1
1!3
1!2
#70
1!4
#80
1!1
1!3
1!2
#90
1!4
#100
1!1
1!3
1!2
#110
1!4
#120
1!1
1!3
1!2
#130
1!4
#140
1!1
1!3
1!2
#150
1!4
#160
1!1
1!3
1!2
#170
1!4
#180
1!1
1!3
1!2
#190
1!4
#200
1!1
1!3
1!2
#210
1!4
#220
1!1
1!3
1!2
#230
1!4
#240
1!1
1!3
1!2
#250
1!4
#260
1!1
1!3
1!2
#270
1!4
#280
1!1
1!3
1!2
#290
1!4
#300
1!1
1!3
1!2
#310
1!4
#320
1!1
1!3
1!2
#330
1!4
#340
1!1
1!3
1!2
#350
1!4
#360
1!1
1!3
1!2
#370
1!4
#380
1!1
1!3
1!2
#390
1!4
#400
1!1
1!3
1!2
#410
1!4
#420
1!1
1!3
1!2
#430
1!4
#440
1!1
1!3
1!2
#450
1!4
#460
1!1
1!3
1!2
#470
1!4
#480
1!1
1!3
1!2
#490
1!4
#500
1!1
1!3
1!2
#510
1!4
#520
1!1
1!3
1!2
#530
1!4
#540
1!1
1!3
1!2
#550
1!4
#560
1!1
1!3
1!2
#570
1!4
#580
1!1
1!3
1!2
#590
1!4
#600
1!1
1!3
1!2
#610
1!4
#620
1!1
1!3
1!2
#630
1!4
#640
1!1
1!3
1!2
#650
1!4
#660
1!1
1!3
1!2
#670
1!4
#680
1!1
1!3
1!2
#690
1!4
#700
1!1
1!3
1!2
#710
1!4
#720
1!1
1!3
1!2
#730
1!4
#740
1!1
1!3
1!2
#750
1!4
#760
1!1
1!3
1!2
#770
1!4
#780
1!1
1!3
1!2
#790
1!4
#800
1!1
1!3
1!2
#810
1!4
#820
1!1
1!3
1!2
#830
1!4
#840
1!1
1!3
1!2
#850
1!4
#860
1!1
1!3
1!2
#870
1!4
#880
1!1
1!3
1!2
#890
1!4
#900
1!1
1!3
1!2
#910
1!4
#920
1!1
1!3
1!2
#930
1!4
#940
1!1
1!3
1!2
#950
1!4
#960
1!1
1!3
1!2
#970
1!4
#980
1!1
1!3
1!2
#990
1!4
#1000
z!1
z!2
z!3
z!4
